[{
  "_id": {
    "$oid": "5f93fbb2b4a4b31a2077884f"
  },
  "title": "postingan satu",
  "user_id": 1,
  "text": "postingasn pertamaku",
  "tag": [
    "nuansa",
    "alam",
    "hijau"
  ],
  "comments": [
    {
      "text": "saya mencoba komentar",
      "user_id": 11,
      "name": "aris",
      "rating": 1,
      "date": {
        "$date": "2020-10-23T17:00:00Z"
      }
    },
    {
      "text": "saya ikut komentar juga",
      "user_id": 12,
      "name": "nelson",
      "rating": 2,
      "date": {
        "$date": "2020-10-23T17:00:00Z"
      }
    },
    {
      "text": "saya ikut komentar juga deh",
      "user_id": 13,
      "name": "endra",
      "rating": 3,
      "date": {
        "$date": "2020-10-23T17:00:00Z"
      }
    },
    {
      "text": "kalau gitu saya ikut komentar juga deh",
      "user_id": 14,
      "name": "mei",
      "rating": 4,
      "date": {
        "$date": "2020-10-23T17:00:00Z"
      }
    },
    {
      "text": "saya juga mau ikut gabung komentar juga deh",
      "user_id": 13,
      "name": "ghufran",
      "rating": 5,
      "date": {
        "$date": "2020-10-23T17:00:00Z"
      }
    }
  ]
},{
  "_id": {
    "$oid": "5f93ffdfb4a4b31a20778850"
  },
  "title": "postingan dua",
  "user_id": 2,
  "text": "postingasn kedua",
  "tag": [
    "gunung",
    "laut",
    "savana"
  ],
  "comments": [
    {
      "text": "coba",
      "user_id": 21,
      "name": "aris",
      "rating": 1
    },
    {
      "text": "mencoba",
      "user_id": 22,
      "name": "nelson",
      "rating": 2
    },
    {
      "text": "mencoba juga",
      "user_id": 23,
      "name": "endra",
      "rating": 3
    },
    {
      "text": "mencoba juga deh",
      "user_id": 24,
      "name": "mei",
      "rating": 4
    },
    {
      "text": "mencoba ikut juga deh",
      "user_id": 25,
      "name": "ghufran",
      "rating": 5
    }
  ]
},{
  "_id": {
    "$oid": "5f9400c8b4a4b31a20778851"
  },
  "title": "postingan tiga",
  "user_id": 3,
  "text": "postingasn ketiga",
  "tag": [
    "alam",
    "hijau",
    "alam"
  ],
  "comments": [
    {
      "text": "aaa",
      "user_id": 31,
      "name": "aris",
      "rating": 1
    },
    {
      "text": "bbbb",
      "user_id": 32,
      "name": "nelson",
      "rating": 2
    },
    {
      "text": "ccccc",
      "user_id": 33,
      "name": "endra",
      "rating": 3
    },
    {
      "text": "dddddd",
      "user_id": 34,
      "name": "mei",
      "rating": 4
    },
    {
      "text": "eeeeeee",
      "user_id": 35,
      "name": "ghufran",
      "rating": 5
    },
    {
      "text": "ffffffff",
      "user_id": 36,
      "name": "wahyu",
      "rating": 6
    }
  ]
}]